{
    "rower": [
        2500.0,
        10.0
    ],
    "komputer": [
        3200.0,
        10.0
    ],
    "notes": [
        50.0,
        20.0
    ],
    "myszka": [
        50.0,
        30.0
    ],
    "\u017caba": [
        100.0,
        5.0
    ],
    "monitor": [
        1000.0,
        5.0
    ],
    "zasilacz": [
        500.0,
        2.0
    ]
}